{
    "storage_account" : "xxxxxxxxx",
    "storage_account_rg" : "xxxxxxxxxxx",
    "subscriptions" : [
        "xxxxxxxx-xxxx-xxxx-xxxx-xxxxxxxxxxxx",
        "xxxxxxxx-xxxx-xxxx-xxxx-xxxxxxxxxxxx"
    ]
}